 ---- SWITCH ON ---- 
---- :::: START CLOCK  ::: -----
------------------------------[ tick: 0 ]------------------------------
Handling #CPU irq with parameters = None
cpu - NOOP
------------------------------[ tick: 1 ]------------------------------
Handling #CPU irq with parameters = None
cpu - NOOP
------------------------------[ tick: 2 ]------------------------------
Handling #CPU irq with parameters = None
cpu - NOOP
------------------------------[ tick: 3 ]------------------------------
Handling #CPU irq with parameters = None
cpu - NOOP
------------------------------[ tick: 4 ]------------------------------
Handling #CPU irq with parameters = None
Handling #TIME_OUT irq with parameters = None
cpu - NOOP
------------------------------[ tick: 5 ]------------------------------
Handling #CPU irq with parameters = None
cpu - NOOP
---- ::::MMU UPDATE::: -----
-  --  --
0  -1  -1
-  --  --
---- ::::MMU UPDATE::: -----
-  --  --
0  -1  -1
1  -1  -1
-  --  --
---- ::::MMU UPDATE::: -----
-  --  --
0  -1  -1
1  -1  -1
2  -1  -1
-  --  --
---- ::::MMU UPDATE::: -----
-  --  --
0  -1  -1
1  -1  -1
2  -1  -1
3  -1  -1
-  --  --
---- ::::MMU UPDATE::: -----
-  --  --
0  -1  -1
1  -1  -1
2  -1  -1
3  -1  -1
4  -1  -1
-  --  --
-----> Running pid :1
------------------------------[ tick: 6 ]------------------------------
Handling #CPU irq with parameters = None
Handling #PAGE_FAULT irq with parameters = 0
cpu - Exec: CPU, PC=1
------------------------------[ tick: 7 ]------------------------------
Handling #CPU irq with parameters = CPU
cpu - Exec: CPU, PC=2
------------------------------[ tick: 8 ]------------------------------
Handling #CPU irq with parameters = CPU
cpu - Exec: CPU, PC=3
------------------------------[ tick: 9 ]------------------------------
Handling #CPU irq with parameters = CPU
Handling #TIME_OUT irq with parameters = CPU
---- ::::MMU UPDATE::: -----
-  --  --
0  -1  -1
-  --  --
---- ::::MMU UPDATE::: -----
-  --  --
0  -1  -1
1  -1  -1
-  --  --
---- ::::MMU UPDATE::: -----
-  --  --
0  -1  -1
1  -1  -1
2  -1  -1
-  --  --
---- ::::MMU UPDATE::: -----
-  --  --
0  -1  -1
1  -1  -1
2  -1  -1
3  -1  -1
-  --  --
---- ::::MMU UPDATE::: -----
-  --  --
0  -1  -1
1  -1  -1
2  -1  -1
3  -1  -1
4  -1  -1
-  --  --
-----> Running pid :2
Handling #PAGE_FAULT irq with parameters = 0
cpu - Exec: CPU, PC=1
------------------------------[ tick: 10 ]------------------------------
Handling #CPU irq with parameters = CPU
cpu - Exec: CPU, PC=2
------------------------------[ tick: 11 ]------------------------------
Handling #CPU irq with parameters = CPU
cpu - Exec: CPU, PC=3
------------------------------[ tick: 12 ]------------------------------
Handling #CPU irq with parameters = CPU
cpu - Exec: CPU, PC=4
------------------------------[ tick: 13 ]------------------------------
Handling #CPU irq with parameters = CPU
Handling #TIME_OUT irq with parameters = CPU
---- ::::MMU UPDATE::: -----
-  --  --
0  -1  -1
-  --  --
---- ::::MMU UPDATE::: -----
-  --  --
0  -1  -1
1  -1  -1
-  --  --
---- ::::MMU UPDATE::: -----
-  --  --
0  -1  -1
1  -1  -1
2  -1  -1
-  --  --
---- ::::MMU UPDATE::: -----
-  --  --
0  -1  -1
1  -1  -1
2  -1  -1
3  -1  -1
-  --  --
---- ::::MMU UPDATE::: -----
-  --  --
0  -1  -1
1  -1  -1
2  -1  -1
3  -1  -1
4  -1  -1
-  --  --
-----> Running pid :1
Handling #PAGE_FAULT irq with parameters = 0
cpu - Exec: CPU, PC=4
------------------------------[ tick: 14 ]------------------------------
Handling #CPU irq with parameters = CPU
Handling #PAGE_FAULT irq with parameters = 1
cpu - Exec: CPU, PC=5
------------------------------[ tick: 15 ]------------------------------
Handling #CPU irq with parameters = CPU
cpu - Exec: CPU, PC=6
------------------------------[ tick: 16 ]------------------------------
Handling #CPU irq with parameters = CPU
cpu - Exec: CPU, PC=7
------------------------------[ tick: 17 ]------------------------------
Handling #CPU irq with parameters = CPU
Handling #TIME_OUT irq with parameters = CPU
---- ::::MMU UPDATE::: -----
-  --  --
0  -1  -1
-  --  --
---- ::::MMU UPDATE::: -----
-  --  --
0  -1  -1
1  -1  -1
-  --  --
---- ::::MMU UPDATE::: -----
-  --  --
0  -1  -1
1  -1  -1
2  -1  -1
-  --  --
---- ::::MMU UPDATE::: -----
-  --  --
0  -1  -1
1  -1  -1
2  -1  -1
3  -1  -1
-  --  --
---- ::::MMU UPDATE::: -----
-  --  --
0  -1  -1
1  -1  -1
2  -1  -1
3  -1  -1
4  -1  -1
-  --  --
-----> Running pid :2
Handling #PAGE_FAULT irq with parameters = 1
----:::: Victima ::: -----
** {'pid': 1, 'page': 0, 'frame': 2}
--------Swapping in : ['CPU', 'CPU', 'CPU', 'CPU']
cpu - Exec: CPU, PC=5
------------------------------[ tick: 18 ]------------------------------
Handling #CPU irq with parameters = CPU
cpu - Exec: CPU, PC=6
------------------------------[ tick: 19 ]------------------------------
Handling #CPU irq with parameters = CPU
cpu - Exec: CPU, PC=7
 ---- SWITCH OFF ---- 
